UART/UART_tx/UART_TX.vcd
$date
	Tue Nov 11 10:55:55 2025
$end
$version
	QuestaSim Version 10.7c
$end
$timescale
	1ps
$end

$scope module UART_TX_TB $end
$var parameter 32 ! PERIOD $end
$var reg 8 " p_data_tb [7:0] $end
$var reg 1 # data_valid_tb $end
$var reg 1 $ clk $end
$var reg 1 % rst $end
$var reg 1 & tx_out_expec $end
$var wire 1 ' tx_out_dut $end
$var wire 1 ( busy_dut $end
$var reg 10 ) tx_out_reg [9:0] $end
$var reg 4 * x [3:0] $end
$var integer 32 + i $end
$var integer 32 , j $end

$scope module dut $end
$var wire 1 - p_data [7] $end
$var wire 1 . p_data [6] $end
$var wire 1 / p_data [5] $end
$var wire 1 0 p_data [4] $end
$var wire 1 1 p_data [3] $end
$var wire 1 2 p_data [2] $end
$var wire 1 3 p_data [1] $end
$var wire 1 4 p_data [0] $end
$var wire 1 5 data_valid $end
$var wire 1 6 clk $end
$var wire 1 7 rst $end
$var wire 1 ' tx_out $end
$var wire 1 ( busy $end
$var wire 1 8 ser_done $end
$var wire 1 9 ser_en $end
$var wire 1 : ser_data $end
$var wire 1 ; mux_sel [1] $end
$var wire 1 < mux_sel [0] $end

$scope module FSM $end
$var parameter 32 = CLK_PER_BIT $end
$var parameter 32 > CLK_COUNTER_WIDTH $end
$var parameter 3 ? IDLE $end
$var parameter 3 @ START $end
$var parameter 3 A DATA $end
$var parameter 3 B STOP $end
$var wire 1 6 clk $end
$var wire 1 7 rst $end
$var wire 1 5 data_valid $end
$var wire 1 8 ser_done $end
$var reg 1 C ser_en $end
$var reg 1 D busy $end
$var reg 2 E mux_sel [1:0] $end
$var reg 13 F clk_counter [12:0] $end
$var reg 3 G cs [2:0] $end
$var reg 3 H ns [2:0] $end
$upscope $end

$scope module mux $end
$var wire 1 ; sel [1] $end
$var wire 1 < sel [0] $end
$var wire 1 : s2 $end
$var reg 1 I mux_out $end
$upscope $end

$scope module serializer_unit $end
$var wire 1 - p_data [7] $end
$var wire 1 . p_data [6] $end
$var wire 1 / p_data [5] $end
$var wire 1 0 p_data [4] $end
$var wire 1 1 p_data [3] $end
$var wire 1 2 p_data [2] $end
$var wire 1 3 p_data [1] $end
$var wire 1 4 p_data [0] $end
$var wire 1 9 ser_en $end
$var wire 1 6 clk $end
$var wire 1 7 rst $end
$var reg 1 J out_data $end
$var reg 1 K ser_done $end
$var reg 4 L counter [3:0] $end
$upscope $end
$upscope $end
$upscope $end
$enddefinitions $end
#0
$dumpvars
bx "
x#
0$
0%
x&
bx )
bx *
0C
0D
b1 E
b0 F
b0 G
b0 H
1I
1J
0K
b0 L
b101 !
b1010001011000 =
b1101 >
b0 ?
b1 @
b11 A
b110 B
bx +
bx ,
1'
0(
08
09
1:
1<
0;
07
06
x5
x4
x3
x2
x1
x0
x/
x.
x-
$end
#2000
1$
16
#4000
0$
06
#6000
1$
16
#8000
0$
06
#10000
1$
16
#12000
0$
06
#14000
1$
16
#16000
0$
06
#18000
1$
16
#20000
0$
06
#22000
1$
16
#24000
0$
06
#26000
1$
16
#28000
0$
06
#30000
1$
16
#32000
0$
06
#34000
1$
16
#36000
0$
06
#38000
1$
16
#40000
0$
06
#42000
1$
16
#44000
0$
06
#46000
1$
16
#48000
0$
06
#50000
1$
16
#52000
0$
06
#54000
1$
16
#56000
0$
06
#58000
1$
16
#60000
0$
06
#62000
1$
16
#64000
0$
06
#66000
1$
16
#68000
0$
06
#70000
1$
16
#72000
0$
06
#74000
1$
16
#76000
0$
06
#78000
1$
16
#80000
0$
06
b0 +
#82000
1$
16
#84000
0$
06
b100100 "
1#
b1 +
04
03
12
01
00
1/
0.
0-
15
b1 H
#86000
1$
16
#88000
0$
06
b10000001 "
b10 +
14
02
0/
1-
#90000
1$
16
#92000
0$
06
b1001 "
b11 +
11
0-
#94000
1$
16
#96000
0$
06
b1100011 "
b100 +
13
01
1/
1.
#98000
1$
16
#100000
0$
06
b1101 "
b101 +
03
12
11
0/
0.
#102000
1$
16
#104000
0$
06
b10001101 "
b110 +
1-
#106000
1$
16
#108000
0$
06
b1100101 "
b111 +
01
1/
1.
0-
#110000
1$
16
#112000
0$
06
b10010 "
b1000 +
04
13
02
10
0/
0.
#114000
1$
16
#116000
0$
06
b1 "
b1001 +
14
03
00
#118000
1$
16
#120000
0$
06
b1101 "
b1010 +
12
11
#122000
1$
16
#124000
0$
06
b1110110 "
b1011 +
04
13
01
10
1/
1.
#126000
1$
16
#128000
0$
06
b111101 "
b1100 +
14
03
11
0.
#130000
1$
16
#132000
0$
06
b11101101 "
b1101 +
00
1.
1-
#134000
1$
16
#136000
0$
06
b10001100 "
b1110 +
04
0/
0.
#138000
1$
16
#140000
0$
06
b11111001 "
b1111 +
14
02
10
1/
1.
#142000
1$
16
#144000
0$
06
b11000110 "
b10000 +
04
13
12
01
00
0/
#146000
1$
16
#148000
0$
06
b11000101 "
b10001 +
14
03
#150000
1$
16
#152000
0$
06
b10101010 "
b10010 +
04
13
02
11
1/
0.
#154000
1$
16
#156000
0$
06
b11100101 "
b10011 +
14
03
12
01
1.
#158000
1$
16
#160000
0$
06
b1110111 "
b10100 +
13
10
0-
#162000
1$
16
#164000
0$
06
b10010 "
b10101 +
04
02
0/
0.
#166000
1$
16
#168000
0$
06
b10001111 "
b10110 +
14
12
11
00
1-
#170000
1$
16
#172000
0$
06
b11110010 "
b10111 +
04
02
01
10
1/
1.
#174000
1$
16
#176000
0$
06
b11001110 "
b11000 +
12
11
00
0/
#178000
1$
16
#180000
0$
06
b11101000 "
b11001 +
03
02
1/
#182000
1$
16
#184000
0$
06
b11000101 "
b11010 +
14
12
01
0/
#186000
1$
16
#188000
0$
06
b1011100 "
b11011 +
04
11
10
0-
#190000
1$
16
#192000
0$
06
b10111101 "
b11100 +
14
1/
0.
1-
#194000
1$
16
#196000
0$
06
b101101 "
b11101 +
00
0-
#198000
1$
16
#200000
0$
06
b1100101 "
b11110 +
01
1.
#202000
1$
16
#204000
0$
06
b1100011 "
b11111 +
13
02
#206000
1$
16
#208000
0$
06
b1010 "
b100000 +
04
11
0/
0.
#210000
1$
16
#212000
0$
06
b10000000 "
b100001 +
03
01
1-
#214000
1$
16
#216000
0$
06
b100000 "
b100010 +
1/
0-
#218000
1$
16
#220000
0$
06
b10101010 "
b100011 +
13
11
1-
#222000
1$
16
#224000
0$
06
b10011101 "
b100100 +
14
03
12
10
0/
#226000
1$
16
#228000
0$
06
b10010110 "
b100101 +
04
13
01
#230000
1$
16
#232000
0$
06
b10011 "
b100110 +
14
02
0-
#234000
1$
16
#236000
0$
06
b1101 "
b100111 +
03
12
11
00
#238000
1$
16
#240000
0$
06
b1010011 "
b101000 +
13
02
01
10
1.
#242000
1$
16
#244000
0$
06
b1101011 "
b101001 +
11
00
1/
#246000
1$
16
#248000
0$
06
b11010101 "
b101010 +
03
12
01
10
0/
1-
#250000
1$
16
#252000
0$
06
b10 "
b101011 +
04
13
02
00
0.
0-
#254000
1$
16
#256000
0$
06
b10101110 "
b101100 +
12
11
1/
1-
#258000
1$
16
#260000
0$
06
b11101 "
b101101 +
14
03
10
0/
0-
#262000
1$
16
#264000
0$
06
b11001111 "
b101110 +
13
00
1.
1-
#266000
1$
16
#268000
0$
06
b100011 "
b101111 +
02
01
1/
0.
0-
#270000
1$
16
#272000
0$
06
b1010 "
b110000 +
04
11
0/
#274000
1$
16
#276000
0$
06
b11001010 "
b110001 +
1.
1-
#278000
1$
16
#280000
0$
06
b111100 "
b110010 +
03
12
10
1/
0.
0-
#282000
1$
16
#284000
0$
06
1%
0#
b0 +
17
05
b0 H
#286000
1$
16
#288000
0$
06
b11110010 "
b1 +
13
02
01
1.
1-
#290000
1$
16
#292000
0$
06
b10001010 "
b10 +
11
00
0/
0.
#294000
1$
16
#296000
0$
06
b1000001 "
b11 +
14
03
01
1.
0-
#298000
1$
16
#300000
0$
06
b11011000 "
b100 +
04
11
10
1-
#302000
1$
16
#304000
0$
06
b1111000 "
b101 +
1/
0-
#306000
1$
16
#308000
0$
06
b10001001 "
b110 +
14
00
0/
0.
1-
#310000
1$
16
#312000
0$
06
b11101011 "
b111 +
13
1/
1.
#314000
1$
16
#316000
0$
06
b10110110 "
b1000 +
04
12
01
10
0.
#318000
1$
16
#320000
0$
06
b11000110 "
b1001 +
00
0/
1.
#322000
1$
16
#324000
0$
06
b10101110 "
b1010 +
11
1/
0.
#326000
1$
16
#328000
0$
06
b10111100 "
b1011 +
03
10
#330000
1$
16
#332000
0$
06
b101010 "
b1100 +
13
02
00
0-
#334000
1$
16
#336000
0$
06
b1011 "
b1101 +
14
0/
#338000
1$
16
#340000
0$
06
b1110001 "
b1110 +
03
01
10
1/
1.
#342000
1$
16
#344000
0$
06
b10000101 "
b1111 +
12
00
0/
0.
1-
#346000
1$
16
#348000
0$
06
b1001111 "
b10000 +
13
11
1.
0-
#350000
1$
16
#352000
0$
06
b111011 "
b10001 +
02
10
1/
0.
#354000
1$
16
#356000
0$
06
b111010 "
b10010 +
04
#358000
1$
16
#360000
0$
06
b1111110 "
b10011 +
12
1.
#362000
1$
16
#364000
0$
06
b10101 "
b10100 +
14
03
01
0/
0.
#366000
1$
16
#368000
0$
06
b11110001 "
b10101 +
02
1/
1.
1-
#370000
1$
16
#372000
0$
06
b11011001 "
b10110 +
11
0/
#374000
1$
16
#376000
0$
06
b1100010 "
b10111 +
04
13
01
00
1/
0-
#378000
1$
16
#380000
0$
06
b1001100 "
b11000 +
03
12
11
0/
#382000
1$
16
#384000
0$
06
b10011111 "
b11001 +
14
13
10
0.
1-
#386000
1$
16
#388000
0$
06
b10001111 "
b11010 +
00
#390000
1$
16
#392000
0$
06
b11111000 "
b11011 +
04
03
02
10
1/
1.
#394000
1$
16
#396000
0$
06
b10110111 "
b11100 +
14
13
12
01
0.
#398000
1$
16
#400000
0$
06
b10011111 "
b11101 +
11
0/
#402000
1$
16
#404000
0$
06
b1011100 "
b11110 +
04
03
1.
0-
#406000
1$
16
#408000
0$
06
b1011011 "
b11111 +
14
13
02
#410000
1$
16
#412000
0$
06
b10001001 "
b100000 +
03
00
0.
1-
#414000
1$
16
#416000
0$
06
b1001001 "
b100001 +
1.
0-
#418000
1$
16
#420000
0$
06
b11010000 "
b100010 +
04
01
10
1-
#422000
1$
16
#424000
0$
06
b11010111 "
b100011 +
14
13
12
#426000
1$
16
#428000
0$
06
b1010001 "
b100100 +
03
02
0-
#430000
1$
16
#432000
0$
06
b10010110 "
b100101 +
04
13
12
0.
1-
#434000
1$
16
#436000
0$
06
b1100 "
b100110 +
03
11
00
0-
#438000
1$
16
#440000
0$
06
b11000010 "
b100111 +
13
02
01
1.
1-
#442000
1$
16
#444000
0$
06
b11001000 "
b101000 +
03
11
#446000
1$
16
#448000
0$
06
b1110111 "
b101001 +
14
13
12
01
10
1/
0-
#450000
1$
16
#452000
0$
06
b111101 "
b101010 +
03
11
0.
#454000
1$
16
#456000
0$
06
b10010 "
b101011 +
04
13
02
01
0/
#458000
1$
16
#460000
0$
06
b1111110 "
b101100 +
12
11
1/
1.
#462000
1$
16
#464000
0$
06
b1101101 "
b101101 +
14
03
00
#466000
1$
16
#468000
0$
06
b111001 "
b101110 +
02
10
0.
#470000
1$
16
#472000
0$
06
b11111 "
b101111 +
13
12
0/
#474000
1$
16
#476000
0$
06
b11010011 "
b110000 +
02
01
1.
1-
#478000
1$
16
#480000
0$
06
b10000101 "
b110001 +
03
12
00
0.
#482000
1$
16
#484000
0$
06
b1111000 "
b110010 +
b0 +
b1011011 "
1#
b1010110110 )
b0 ,
0&
